INDEX VERSION 1.3+C:\Users\krupa\OneDrive\Desktop\TalentSprint\FSD\fsd62\Module3\workspace1\.metadata\.plugins\org.eclipse.wst.jsdt.core\indexes
1395183888.index
459397772.index
2888495115.index
850029941.index
562878180.index
2885243132.index
